220320	-20	1	0.904863369
20160	-20	1	0.082797955
120	-10	30	0.000492845
7200	-20	1	0.029570698
60	-10	30	0.000246422
10080	-20	1	0.041398978
60480	-20	30	0.000246422
14400	21	30	0.000246422
30240	-20	30	0.000246422
82080	-20	30	0
296640	-20	11	1
82080	-20	30	0
5760	21	30	0
86400	-20	30	0
44640	-20	30	0
308160	-20	0	5.5
82080	-20	30	0
5760	21	30	0
129600	-20	30	0
308160	-20	0	5.5
82080	-20	30	0
5760	21	30	0
519840	-20	30	0
5760	21	30	0
519840	-20	30	0
5760	21	30	0
519840	-20	30	0
5760	21	30	0
131040	-20	30	0
308160	-20	0	7
82080	-20	30	0
5760	21	30	0
129600	-20	30	0
308160	-20	0	7
82080	-20	30	0
5760	21	30	0
129600	-20	30	0
308160	-20	0	7
82080	-20	30	0
5760	21	30	0
129600	-20	30	0
308160	-20	0	7
82080	-20	30	0
5760	21	30	0
